{
    "success": true,
    "posts": {
        "page": 1,
        "per_page": 15,
        "total_pages": 2,
        "total": 17,
        "posts": [
            {
                "_id": 1,
                "post_id": 1,
                "user_id": 1,
                "page_id": null,
                "user_type": "user",
                "post_type": "video",
                "text": "Lorem Ipsum is simply dummy text of the printing and typesetting industry. Lorem Ipsum has been the industry's standard dummy text ever since the 1500s, when an unknown printer took a galley of type and scrambled it to make a type specimen book. It has survived not only five centuries, but also the leap into electronic typesetting, remaining essentially unchanged. It was popularised in the 1960s with the release of Letraset sheets containing Lorem Ipsum passages, and more recently with desktop publishing software like Aldus PageMaker including versions of Lorem Ipsum.",
                "likes": -1,
                "comments": 3,
                "interacao": 1644249403,
                "posts_images": [],
                "posts_videos": [
                    {
                        "post_id": 1,
                        "source": "video/2022/February/8628d11a12ca73d128e2133d1afd22c2-a0cc7a4f-4f25-47d0-a700-296663a7ffef.mp4",
                        "bucket": "desenvolvimento",
                        "url": "https://desenvolvimento.us-east-1.linodeobjects.com/uploads/video/2022/February/8628d11a12ca73d128e2133d1afd22c2-a0cc7a4f-4f25-47d0-a700-296663a7ffef.mp4"
                    }
                ],
                "posts_links": [],
                "posts_medias": [],
                "posts_comments": [],
                "__v": 0,
                "user": {
                    "user_id": 1,
                    "user_name": "bomperfil",
                    "user_verified": "1",
                    "user_firstname": "Social",
                    "user_lastname": "Wee",
                    "user_gender": "male",
                    "user_picture": "2022/January/0b831e91478c66f7b859935790925c4e-dfe6b9f7-c48b-4328-9f3f-4836be85dbd0.jpg",
                    "user_privacidade": "publica",
                    "get_avatar_url": "https://desenvolvimento.us-east-1.linodeobjects.com/uploads/avatar/2022/January/0b831e91478c66f7b859935790925c4e-dfe6b9f7-c48b-4328-9f3f-4836be85dbd0.jpg"
                },
                "page": null
            },
            {
                "_id": 5,
                "post_id": 5,
                "user_id": 1,
                "page_id": null,
                "user_type": "user",
                "post_type": "video",
                "text": "",
                "likes": 0,
                "comments": 2,
                "interacao": 1644249122,
                "posts_images": [],
                "posts_videos": [
                    {
                        "post_id": 5,
                        "source": "video/2022/February/7852fed1bace4f89bc7979460a0fe87b-b983d0a4-6765-47e2-af32-0e9076ac7b7d.mp4",
                        "bucket": "desenvolvimento",
                        "url": "https://desenvolvimento.us-east-1.linodeobjects.com/uploads/video/2022/February/7852fed1bace4f89bc7979460a0fe87b-b983d0a4-6765-47e2-af32-0e9076ac7b7d.mp4"
                    }
                ],
                "posts_links": [],
                "posts_medias": [],
                "posts_comments": [],
                "__v": 0,
                "user": {
                    "user_id": 1,
                    "user_name": "bomperfil",
                    "user_verified": "1",
                    "user_firstname": "Social",
                    "user_lastname": "Wee",
                    "user_gender": "male",
                    "user_picture": "2022/January/0b831e91478c66f7b859935790925c4e-dfe6b9f7-c48b-4328-9f3f-4836be85dbd0.jpg",
                    "user_privacidade": "publica",
                    "get_avatar_url": "https://desenvolvimento.us-east-1.linodeobjects.com/uploads/avatar/2022/January/0b831e91478c66f7b859935790925c4e-dfe6b9f7-c48b-4328-9f3f-4836be85dbd0.jpg"
                },
                "page": null
            },
            {
                "_id": 6,
                "post_id": 6,
                "user_id": 1,
                "page_id": null,
                "user_type": "user",
                "post_type": "video",
                "text": "",
                "likes": 0,
                "comments": 0,
                "interacao": 1644006524,
                "posts_images": [],
                "posts_videos": [
                    {
                        "post_id": 6,
                        "source": "video/2022/February/7eb263a49b3341134a66924bd2e00ae4-d19f7666-7149-40f2-8708-70ac6a9f49ac.mp4",
                        "bucket": "desenvolvimento",
                        "url": "https://desenvolvimento.us-east-1.linodeobjects.com/uploads/video/2022/February/7eb263a49b3341134a66924bd2e00ae4-d19f7666-7149-40f2-8708-70ac6a9f49ac.mp4"
                    }
                ],
                "posts_links": [],
                "posts_medias": [],
                "posts_comments": [],
                "__v": 0,
                "user": {
                    "user_id": 1,
                    "user_name": "bomperfil",
                    "user_verified": "1",
                    "user_firstname": "Social",
                    "user_lastname": "Wee",
                    "user_gender": "male",
                    "user_picture": "2022/January/0b831e91478c66f7b859935790925c4e-dfe6b9f7-c48b-4328-9f3f-4836be85dbd0.jpg",
                    "user_privacidade": "publica",
                    "get_avatar_url": "https://desenvolvimento.us-east-1.linodeobjects.com/uploads/avatar/2022/January/0b831e91478c66f7b859935790925c4e-dfe6b9f7-c48b-4328-9f3f-4836be85dbd0.jpg"
                },
                "page": null
            },
            {
                "_id": 7,
                "post_id": 7,
                "user_id": null,
                "page_id": 2,
                "user_type": "page",
                "post_type": "video",
                "text": "",
                "likes": 2,
                "comments": 0,
                "interacao": 1644006537,
                "posts_images": [],
                "posts_videos": [
                    {
                        "post_id": 7,
                        "source": "video/2022/February/39b94892b09062a3283b53a00bf11b75-ac9ebd80-3d38-4e1a-b90d-ee10822a1da3.mp4",
                        "bucket": "desenvolvimento",
                        "url": "https://desenvolvimento.us-east-1.linodeobjects.com/uploads/video/2022/February/39b94892b09062a3283b53a00bf11b75-ac9ebd80-3d38-4e1a-b90d-ee10822a1da3.mp4"
                    }
                ],
                "posts_links": [],
                "posts_medias": [],
                "posts_comments": [],
                "__v": 0,
                "user": null,
                "page": {
                    "page_id": 2,
                    "page_admin": 1,
                    "page_name": "f5e25dcbd326baa79f18158acf4a4c62",
                    "page_title": "Brasil é lindo",
                    "page_picture": "photos/2021/07/bomperfil_9c2c019488ff7041353f9404aa4e2f02_cropped.jpg",
                    "get_avatar_url": null,
                    "get_cover_url": null
                }
            },
            {
                "_id": 8,
                "post_id": 8,
                "user_id": 1,
                "page_id": null,
                "user_type": "user",
                "post_type": "video",
                "text": "",
                "likes": 0,
                "comments": 0,
                "interacao": 1644006546,
                "posts_images": [],
                "posts_videos": [
                    {
                        "post_id": 8,
                        "source": "video/2022/February/97cc289652ad3eef8315c5ea19b65114-d929532e-2873-49ad-ba5d-39bab9cc4360.mp4",
                        "bucket": "desenvolvimento",
                        "url": "https://desenvolvimento.us-east-1.linodeobjects.com/uploads/video/2022/February/97cc289652ad3eef8315c5ea19b65114-d929532e-2873-49ad-ba5d-39bab9cc4360.mp4"
                    }
                ],
                "posts_links": [],
                "posts_medias": [],
                "posts_comments": [],
                "__v": 0,
                "user": {
                    "user_id": 1,
                    "user_name": "bomperfil",
                    "user_verified": "1",
                    "user_firstname": "Social",
                    "user_lastname": "Wee",
                    "user_gender": "male",
                    "user_picture": "2022/January/0b831e91478c66f7b859935790925c4e-dfe6b9f7-c48b-4328-9f3f-4836be85dbd0.jpg",
                    "user_privacidade": "publica",
                    "get_avatar_url": "https://desenvolvimento.us-east-1.linodeobjects.com/uploads/avatar/2022/January/0b831e91478c66f7b859935790925c4e-dfe6b9f7-c48b-4328-9f3f-4836be85dbd0.jpg"
                },
                "page": null
            },
            {
                "_id": 9,
                "post_id": 9,
                "user_id": 1,
                "page_id": null,
                "user_type": "user",
                "post_type": "video",
                "text": "",
                "likes": 1,
                "comments": 0,
                "interacao": 1644006556,
                "posts_images": [],
                "posts_videos": [
                    {
                        "post_id": 9,
                        "source": "video/2022/February/658513b4ca7adf847d73b79e723bf507-3f0e6fd1-5fb0-4242-8b2a-865cd6ebb01c.mp4",
                        "bucket": "desenvolvimento",
                        "url": "https://desenvolvimento.us-east-1.linodeobjects.com/uploads/video/2022/February/658513b4ca7adf847d73b79e723bf507-3f0e6fd1-5fb0-4242-8b2a-865cd6ebb01c.mp4"
                    }
                ],
                "posts_links": [],
                "posts_medias": [],
                "posts_comments": [],
                "__v": 0,
                "user": {
                    "user_id": 1,
                    "user_name": "bomperfil",
                    "user_verified": "1",
                    "user_firstname": "Social",
                    "user_lastname": "Wee",
                    "user_gender": "male",
                    "user_picture": "2022/January/0b831e91478c66f7b859935790925c4e-dfe6b9f7-c48b-4328-9f3f-4836be85dbd0.jpg",
                    "user_privacidade": "publica",
                    "get_avatar_url": "https://desenvolvimento.us-east-1.linodeobjects.com/uploads/avatar/2022/January/0b831e91478c66f7b859935790925c4e-dfe6b9f7-c48b-4328-9f3f-4836be85dbd0.jpg"
                },
                "page": null
            },
            {
                "_id": 10,
                "post_id": 10,
                "user_id": 1,
                "page_id": null,
                "user_type": "user",
                "post_type": "video",
                "text": "",
                "likes": 1,
                "comments": 0,
                "interacao": 1644006567,
                "posts_images": [],
                "posts_videos": [
                    {
                        "post_id": 10,
                        "source": "video/2022/February/4d40f266a108f0a6800f1b19e7d227a2-dba61216-294c-4527-818a-2ba9497c855e.mp4",
                        "bucket": "desenvolvimento",
                        "url": "https://desenvolvimento.us-east-1.linodeobjects.com/uploads/video/2022/February/4d40f266a108f0a6800f1b19e7d227a2-dba61216-294c-4527-818a-2ba9497c855e.mp4"
                    }
                ],
                "posts_links": [],
                "posts_medias": [],
                "posts_comments": [],
                "__v": 0,
                "user": {
                    "user_id": 1,
                    "user_name": "bomperfil",
                    "user_verified": "1",
                    "user_firstname": "Social",
                    "user_lastname": "Wee",
                    "user_gender": "male",
                    "user_picture": "2022/January/0b831e91478c66f7b859935790925c4e-dfe6b9f7-c48b-4328-9f3f-4836be85dbd0.jpg",
                    "user_privacidade": "publica",
                    "get_avatar_url": "https://desenvolvimento.us-east-1.linodeobjects.com/uploads/avatar/2022/January/0b831e91478c66f7b859935790925c4e-dfe6b9f7-c48b-4328-9f3f-4836be85dbd0.jpg"
                },
                "page": null
            },
            {
                "_id": 11,
                "post_id": 11,
                "user_id": 1,
                "page_id": null,
                "user_type": "user",
                "post_type": "video",
                "text": "Nossa olha que vídeo legal, eu adoro neve!!!",
                "likes": 1,
                "comments": 1,
                "interacao": 1644011089,
                "posts_images": [],
                "posts_videos": [
                    {
                        "post_id": 11,
                        "source": "video/2022/February/04f66178106f18e03d837c2e77cc74a8-8455af47-e667-4fab-9572-b4569f29266c.mp4",
                        "bucket": "desenvolvimento",
                        "url": "https://desenvolvimento.us-east-1.linodeobjects.com/uploads/video/2022/February/04f66178106f18e03d837c2e77cc74a8-8455af47-e667-4fab-9572-b4569f29266c.mp4"
                    }
                ],
                "posts_links": [],
                "posts_medias": [],
                "posts_comments": [],
                "__v": 0,
                "user": {
                    "user_id": 1,
                    "user_name": "bomperfil",
                    "user_verified": "1",
                    "user_firstname": "Social",
                    "user_lastname": "Wee",
                    "user_gender": "male",
                    "user_picture": "2022/January/0b831e91478c66f7b859935790925c4e-dfe6b9f7-c48b-4328-9f3f-4836be85dbd0.jpg",
                    "user_privacidade": "publica",
                    "get_avatar_url": "https://desenvolvimento.us-east-1.linodeobjects.com/uploads/avatar/2022/January/0b831e91478c66f7b859935790925c4e-dfe6b9f7-c48b-4328-9f3f-4836be85dbd0.jpg"
                },
                "page": null
            },
            {
                "_id": 12,
                "post_id": 12,
                "user_id": 1,
                "page_id": null,
                "user_type": "user",
                "post_type": "video",
                "text": "Nossa que praia linda!!",
                "likes": 1,
                "comments": 0,
                "interacao": 1644009044,
                "posts_images": [],
                "posts_videos": [
                    {
                        "post_id": 12,
                        "source": "video/2022/February/90fe4aa80676e18e2fb3742fda7e24b3-623b4397-b0b3-4e1e-84c7-4f94faf71290.mp4",
                        "bucket": "desenvolvimento",
                        "url": "https://desenvolvimento.us-east-1.linodeobjects.com/uploads/video/2022/February/90fe4aa80676e18e2fb3742fda7e24b3-623b4397-b0b3-4e1e-84c7-4f94faf71290.mp4"
                    }
                ],
                "posts_links": [],
                "posts_medias": [],
                "posts_comments": [],
                "__v": 0,
                "user": {
                    "user_id": 1,
                    "user_name": "bomperfil",
                    "user_verified": "1",
                    "user_firstname": "Social",
                    "user_lastname": "Wee",
                    "user_gender": "male",
                    "user_picture": "2022/January/0b831e91478c66f7b859935790925c4e-dfe6b9f7-c48b-4328-9f3f-4836be85dbd0.jpg",
                    "user_privacidade": "publica",
                    "get_avatar_url": "https://desenvolvimento.us-east-1.linodeobjects.com/uploads/avatar/2022/January/0b831e91478c66f7b859935790925c4e-dfe6b9f7-c48b-4328-9f3f-4836be85dbd0.jpg"
                },
                "page": null
            },
            {
                "_id": 13,
                "post_id": 13,
                "user_id": 1,
                "page_id": null,
                "user_type": "user",
                "post_type": "video",
                "text": "Muito top isso heim!!!",
                "likes": 3,
                "comments": 0,
                "interacao": 1644010569,
                "posts_images": [],
                "posts_videos": [
                    {
                        "post_id": 13,
                        "source": "video/2022/February/7804fe1ad0a0d18d4b619f3e180de8bc-6d72d9ac-a8ee-4488-a626-55deaba80bfb.mp4",
                        "bucket": "desenvolvimento",
                        "url": "https://desenvolvimento.us-east-1.linodeobjects.com/uploads/video/2022/February/7804fe1ad0a0d18d4b619f3e180de8bc-6d72d9ac-a8ee-4488-a626-55deaba80bfb.mp4"
                    }
                ],
                "posts_links": [],
                "posts_medias": [],
                "posts_comments": [],
                "__v": 0,
                "user": {
                    "user_id": 1,
                    "user_name": "bomperfil",
                    "user_verified": "1",
                    "user_firstname": "Social",
                    "user_lastname": "Wee",
                    "user_gender": "male",
                    "user_picture": "2022/January/0b831e91478c66f7b859935790925c4e-dfe6b9f7-c48b-4328-9f3f-4836be85dbd0.jpg",
                    "user_privacidade": "publica",
                    "get_avatar_url": "https://desenvolvimento.us-east-1.linodeobjects.com/uploads/avatar/2022/January/0b831e91478c66f7b859935790925c4e-dfe6b9f7-c48b-4328-9f3f-4836be85dbd0.jpg"
                },
                "page": null
            },
            {
                "_id": 14,
                "post_id": 14,
                "user_id": 1,
                "page_id": null,
                "user_type": "user",
                "post_type": "video",
                "text": "Sensacional 🎵",
                "likes": 3,
                "comments": 0,
                "interacao": 1644018021,
                "posts_images": [],
                "posts_videos": [
                    {
                        "post_id": 14,
                        "source": "video/2022/February/74e0a606c018e5870ec9cd8f649990a8-44138602-381f-4887-854e-a43ebecdb9b3.mp4",
                        "bucket": "desenvolvimento",
                        "url": "https://desenvolvimento.us-east-1.linodeobjects.com/uploads/video/2022/February/74e0a606c018e5870ec9cd8f649990a8-44138602-381f-4887-854e-a43ebecdb9b3.mp4"
                    }
                ],
                "posts_links": [],
                "posts_medias": [],
                "posts_comments": [],
                "__v": 0,
                "user": {
                    "user_id": 1,
                    "user_name": "bomperfil",
                    "user_verified": "1",
                    "user_firstname": "Social",
                    "user_lastname": "Wee",
                    "user_gender": "male",
                    "user_picture": "2022/January/0b831e91478c66f7b859935790925c4e-dfe6b9f7-c48b-4328-9f3f-4836be85dbd0.jpg",
                    "user_privacidade": "publica",
                    "get_avatar_url": "https://desenvolvimento.us-east-1.linodeobjects.com/uploads/avatar/2022/January/0b831e91478c66f7b859935790925c4e-dfe6b9f7-c48b-4328-9f3f-4836be85dbd0.jpg"
                },
                "page": null
            },
            {
                "_id": 15,
                "post_id": 15,
                "user_id": 1,
                "page_id": null,
                "user_type": "user",
                "post_type": "video",
                "text": "🎵🎉",
                "likes": 4,
                "comments": 3,
                "interacao": 1644451587,
                "posts_images": [],
                "posts_videos": [
                    {
                        "post_id": 15,
                        "source": "video/2022/February/a1f6cf1b406d0a82a45cb5e4fa7ae131-2d3e9b19-acef-439a-bf1c-ba87d4584f23.mp4",
                        "bucket": "desenvolvimento",
                        "url": "https://desenvolvimento.us-east-1.linodeobjects.com/uploads/video/2022/February/a1f6cf1b406d0a82a45cb5e4fa7ae131-2d3e9b19-acef-439a-bf1c-ba87d4584f23.mp4"
                    }
                ],
                "posts_links": [],
                "posts_medias": [],
                "posts_comments": [],
                "__v": 0,
                "user": {
                    "user_id": 1,
                    "user_name": "bomperfil",
                    "user_verified": "1",
                    "user_firstname": "Social",
                    "user_lastname": "Wee",
                    "user_gender": "male",
                    "user_picture": "2022/January/0b831e91478c66f7b859935790925c4e-dfe6b9f7-c48b-4328-9f3f-4836be85dbd0.jpg",
                    "user_privacidade": "publica",
                    "get_avatar_url": "https://desenvolvimento.us-east-1.linodeobjects.com/uploads/avatar/2022/January/0b831e91478c66f7b859935790925c4e-dfe6b9f7-c48b-4328-9f3f-4836be85dbd0.jpg"
                },
                "page": null
            },
            {
                "_id": 17,
                "post_id": 17,
                "user_id": 49,
                "page_id": null,
                "user_type": "user",
                "post_type": "photos",
                "text": "Top isso heim!",
                "likes": 6,
                "comments": 2,
                "interacao": 1644451572,
                "posts_images": [
                    {
                        "post_id": 17,
                        "source": "photos/2022/February/502b7c036a5eb8afacb474b836fa8572-Screenshot_20220206-092939_Instagram.jpg",
                        "bucket": "desenvolvimento",
                        "url": "https://desenvolvimento.us-east-1.linodeobjects.com/uploads/photos/2022/February/502b7c036a5eb8afacb474b836fa8572-Screenshot_20220206-092939_Instagram.jpg"
                    }
                ],
                "posts_videos": [],
                "posts_links": [],
                "posts_medias": [],
                "posts_comments": [],
                "__v": 0,
                "user": {
                    "user_id": 49,
                    "user_name": "joãob9f897aa",
                    "user_verified": "0",
                    "user_firstname": "João ",
                    "user_lastname": "Neto",
                    "user_gender": "male",
                    "user_picture": "2022/February/bfea37cc0ffb86c7b9c5ee5c6f173b75-3fcb09ef-02d9-404d-a27f-c66eba30689c.jpg",
                    "user_privacidade": "publica",
                    "get_avatar_url": "https://desenvolvimento.us-east-1.linodeobjects.com/uploads/avatar/2022/February/bfea37cc0ffb86c7b9c5ee5c6f173b75-3fcb09ef-02d9-404d-a27f-c66eba30689c.jpg"
                },
                "page": null
            },
            {
                "_id": 18,
                "post_id": 18,
                "user_id": 49,
                "page_id": null,
                "user_type": "user",
                "post_type": "photos",
                "text": "#amarela",
                "likes": 0,
                "comments": 0,
                "interacao": 1644433695,
                "posts_images": [
                    {
                        "post_id": 18,
                        "source": "photos/2022/February/21c65249166d4a40e2419a2d8b20644c-Screenshot_20211114-220434_Instagram.jpg",
                        "bucket": "desenvolvimento",
                        "url": "https://desenvolvimento.us-east-1.linodeobjects.com/uploads/photos/2022/February/21c65249166d4a40e2419a2d8b20644c-Screenshot_20211114-220434_Instagram.jpg"
                    }
                ],
                "posts_videos": [],
                "posts_links": [],
                "posts_medias": [],
                "posts_comments": [],
                "__v": 0,
                "user": {
                    "user_id": 49,
                    "user_name": "joãob9f897aa",
                    "user_verified": "0",
                    "user_firstname": "João ",
                    "user_lastname": "Neto",
                    "user_gender": "male",
                    "user_picture": "2022/February/bfea37cc0ffb86c7b9c5ee5c6f173b75-3fcb09ef-02d9-404d-a27f-c66eba30689c.jpg",
                    "user_privacidade": "publica",
                    "get_avatar_url": "https://desenvolvimento.us-east-1.linodeobjects.com/uploads/avatar/2022/February/bfea37cc0ffb86c7b9c5ee5c6f173b75-3fcb09ef-02d9-404d-a27f-c66eba30689c.jpg"
                },
                "page": null
            },
            {
                "_id": 19,
                "post_id": 19,
                "user_id": 49,
                "page_id": null,
                "user_type": "user",
                "post_type": "video",
                "text": "😱😱😱🤣🤣🤣🤦‍♂️",
                "likes": 0,
                "comments": 1,
                "interacao": 1644451954,
                "posts_images": [],
                "posts_videos": [
                    {
                        "post_id": 19,
                        "source": "video/2022/February/b23755508b7b25df5038fb013662a966-9d4f9ee0-3459-47db-9bc1-4c857d2a1c36.mp4",
                        "bucket": "desenvolvimento",
                        "url": "https://desenvolvimento.us-east-1.linodeobjects.com/uploads/video/2022/February/b23755508b7b25df5038fb013662a966-9d4f9ee0-3459-47db-9bc1-4c857d2a1c36.mp4"
                    }
                ],
                "posts_links": [],
                "posts_medias": [],
                "posts_comments": [],
                "__v": 0,
                "user": {
                    "user_id": 49,
                    "user_name": "joãob9f897aa",
                    "user_verified": "0",
                    "user_firstname": "João ",
                    "user_lastname": "Neto",
                    "user_gender": "male",
                    "user_picture": "2022/February/bfea37cc0ffb86c7b9c5ee5c6f173b75-3fcb09ef-02d9-404d-a27f-c66eba30689c.jpg",
                    "user_privacidade": "publica",
                    "get_avatar_url": "https://desenvolvimento.us-east-1.linodeobjects.com/uploads/avatar/2022/February/bfea37cc0ffb86c7b9c5ee5c6f173b75-3fcb09ef-02d9-404d-a27f-c66eba30689c.jpg"
                },
                "page": null
            }
        ]
    }
}